Portfolio 1 Project Description
…
Here is a glimpse of what the raw data set looks like.

print(subset_sex_harassment)

## # A tibble: 211 x 18
##    participant sexualization partner_gender participant_gen~   age hour_per_week
##          <dbl> <chr>         <chr>          <chr>            <dbl>         <dbl>
##  1           1 NS            M              F                   24             0
##  2           2 S             F              M                   24             4
##  3           3 S             F              F                   22             0
##  4           4 S             F              F                   22             0
##  5           5 NS            F              F                   23             0
##  6           6 S             M              F                   21             0
##  7           7 NS            F              M                   21             6
##  8           8 S             M              F                   19             0
##  9           9 NS            M              F                   22             2
## 10          10 NS            F              F                   23             0
## # ... with 201 more rows, and 12 more variables: sexist_jokes <dbl>,
## #   difficulty_rating <dbl>, fun_rating <dbl>, frustration_rating <dbl>,
## #   excite_rating <dbl>, competitive_rating <dbl>, realistic_rating <dbl>,
## #   violent_rating <dbl>, hs <dbl>, bs <dbl>, ga <dbl>, ods <dbl>
…
